{
  "project_info": {
    "project_number": "591565293693",
    "firebase_url": "https://gofarmz.firebaseio.com",
    "project_id": "gofarmz",
    "storage_bucket": "gofarmz.appspot.com"
  },
  "client": [
    {
      "client_info": {
        "mobilesdk_app_id": "1:591565293693:android:62f04ce23511e90027c914",
        "android_client_info": {
          "package_name": "in.innasoft.gofarmz"
        }
      },
      "oauth_client": [
        {
          "client_id": "591565293693-u2sbfakvfvagtmhk3ci99adbl2gps80b.apps.googleusercontent.com",
          "client_type": 1,
          "android_info": {
            "package_name": "in.innasoft.gofarmz",
            "certificate_hash": "c2db582a5d611cced7f79b1fbae99c09ef563115"
          }
        },
        {
          "client_id": "591565293693-nanef8ksfsfok26fmb0kb4k4tvvmobea.apps.googleusercontent.com",
          "client_type": 3
        }
      ],
      "api_key": [
        {
          "current_key": "AIzaSyA2hP7Y2bzYpfR_ZiWJtdoUu88MUOFErZk"
        }
      ],
      "services": {
        "appinvite_service": {
          "other_platform_oauth_client": [
            {
              "client_id": "591565293693-nanef8ksfsfok26fmb0kb4k4tvvmobea.apps.googleusercontent.com",
              "client_type": 3
            }
          ]
        }
      }
    }
  ],
  "configuration_version": "1"
}